{
  "name": "",
  "css_prefix_text": "icon-",
  "css_use_suffix": false,
  "hinting": false,
  "units_per_em": 1000,
  "ascent": 850,
  "glyphs": [
    {
      "uid": "fb598151d4f3bbb37861ac6fdfabb383",
      "css": "petrolette",
      "code": 59402,
      "src": "custom_icons",
      "selected": true,
      "svg": {
        "path": "M54.3 0C35.7 0.2 17.8 9.8 7.7 27L7.7 27C-7.8 53.2 0.8 86.7 27 102.1L278.8 251.1 278.8 682.8C278.8 713.2 303.3 737.6 333.7 737.6 364.1 737.6 388.5 713.2 388.5 682.8L388.5 220.4C388.5 203 380.6 187.6 368.1 177.6 365.4 175.2 362.5 173.1 359.3 171.2L82.8 7.7C73.8 2.4 63.9-0.1 54.3 0ZM945.7 0C936-0.1 926.2 2.4 917.2 7.7L640.7 171.2C637.5 173.1 634.6 175.2 631.9 177.6 619.4 187.6 611.5 203 611.5 220.4L611.5 682.8C611.5 713.2 635.9 737.6 666.3 737.6 696.7 737.6 721.2 713.2 721.2 682.8L721.2 251.1 973 102.1C999.2 86.7 1007.8 53.2 992.3 27L992.3 27C982.2 9.8 964.3 0.2 945.7 0ZM500 47.8C469.6 47.8 445.2 72.3 445.2 102.7L445.2 945.1C445.2 975.5 469.6 1000 500 1000 530.4 1000 554.8 975.5 554.8 945.1L554.8 102.7C554.8 72.3 530.4 47.8 500 47.8Z",
        "width": 1000
      },
      "search": [
        "newlogo-icon"
      ]
    },
    {
      "uid": "348b04ea17f646fbc6a46e20ebe4fe12",
      "css": "download",
      "code": 59403,
      "src": "mfglabs"
    },
    {
      "uid": "4f3b31017c63ba04dc4f78ce7a8f02b1",
      "css": "upload",
      "code": 59395,
      "src": "mfglabs"
    },
    {
      "uid": "mj2pxhfj0eumtbzirpdokhtzk00480uo",
      "css": "up",
      "code": 59396,
      "src": "typicons"
    },
    {
      "uid": "c0a07aca383ff2a164a4d691fa46e35c",
      "css": "left",
      "code": 59393,
      "src": "elusive"
    },
    {
      "uid": "dc4a03854ef986d64565143bea4241aa",
      "css": "right",
      "code": 59398,
      "src": "elusive"
    },
    {
      "uid": "de5f0a564ccf8816325330e292e11533",
      "css": "rss",
      "code": 59399,
      "src": "fontawesome"
    },
    {
      "uid": "f48ae54adfb27d8ada53d0fd9e34ee10",
      "css": "trash-empty",
      "code": 59408,
      "src": "fontawesome"
    },
    {
      "uid": "70370693ada58ef0a60fa0984fe8d52a",
      "css": "plus",
      "code": 59409,
      "src": "entypo"
    },
    {
      "uid": "1256e3054823e304d7e452a589cf8bb8",
      "css": "minus",
      "code": 59410,
      "src": "entypo"
    },
    {
      "uid": "ec21fe3492bb04d9e29103c319556ed8",
      "css": "search",
      "code": 59411,
      "src": "mfglabs"
    },
    {
      "uid": "3a230e539a4f3b904debd04c6c155034",
      "css": "question",
      "code": 59412,
      "src": "entypo"
    },
    {
      "uid": "559647a6f430b3aeadbecd67194451dd",
      "css": "menu",
      "code": 59413,
      "src": "fontawesome"
    },
    {
      "uid": "06301c50d89b5d3e651bd07ebd6d7de7",
      "css": "cancel",
      "code": 59414,
      "src": "mfglabs"
    },
    {
      "uid": "a73c5deb486c8d66249811642e5d719a",
      "css": "refresh",
      "code": 59415,
      "src": "fontawesome"
    },
    {
      "uid": "c91522256a4c3972e9a2765b995b7252",
      "css": "pin",
      "code": 59424,
      "src": "zocial"
    },
    {
      "uid": "9cc990bbcac7aa8504078b3f49df79b1",
      "css": "comments",
      "code": 59426,
      "src": "fontawesome"
    },
    {
      "uid": "7480a298ce334eef70193895e799c3fd",
      "css": "audio",
      "code": 59425,
      "src": "elusive"
    },
    {
      "uid": "1e89103762be72b0720eda0468e62b90",
      "css": "globe",
      "code": 59427,
      "src": "linecons"
    },
    {
      "uid": "e9bce795d01ef5a058c63cab0a03dc66",
      "css": "cloud",
      "code": 59428,
      "src": "typicons"
    },
    {
      "uid": "3c0ef77f5fbb5c933c23f2c437d8cab8",
      "css": "error",
      "code": 59429,
      "src": "elusive"
    },
    {
      "uid": "29f4bce4a60650057c5248e30baa15a6",
      "css": "note",
      "code": 59430,
      "src": "linecons"
    },
    {
      "uid": "de9a631a7d18106aea1c89ba51b1990a",
      "css": "help",
      "code": 59431,
      "src": "entypo"
    },
    {
      "uid": "6341ebcbe1ed1f6777c1b9527ead368e",
      "css": "video",
      "code": 59433,
      "src": "entypo"
    },
    {
      "uid": "e8ac3bb8871f23096fcab025ba5373cb",
      "css": "w3c",
      "code": 59440,
      "src": "elusive"
    },
    {
      "uid": "44eb9d69bf3b9b74629ce6852a2f9681",
      "css": "reset",
      "code": 63537,
      "src": "mfglabs"
    },
    {
      "uid": "da74e2a8125fdbca337031474a48215a",
      "css": "down",
      "code": 59442,
      "src": "elusive"
    },
    {
      "uid": "67a9d2e5512b8aa812eff7da6d36bffc",
      "css": "checked",
      "code": 59407,
      "src": "elusive"
    },
    {
      "uid": "56b0141d7bbb0717fc6246ea145bc0bd",
      "css": "checkbox",
      "code": 59418,
      "src": "elusive"
    },
    {
      "uid": "7560ca08e3d83e43c58fcbf8f16d8f03",
      "css": "cog",
      "code": 59419,
      "src": "elusive"
    },
    {
      "uid": "8f73806c205d38d9412c340f93ed0c7a",
      "css": "coffee",
      "code": 59392,
      "src": "typicons"
    },
    {
      "uid": "d84a06c5ce6da9ebdc9b0a5cb94db4c4",
      "css": "heartbeat",
      "code": 61982,
      "src": "fontawesome"
    },
    {
      "uid": "8d584f31a5d54de313f1f3da28708ec0",
      "css": "paypal",
      "code": 62274,
      "src": "entypo"
    },
    {
      "uid": "81385e5f1fe091f3d9a20d215d444622",
      "css": "search-circled",
      "code": 59394,
      "src": "elusive"
    },
    {
      "uid": "97ac1a82370ae58f02e4ff1bdc58ee86",
      "css": "warning",
      "code": 59400,
      "src": "websymbols"
    },
    {
      "uid": "05376be04a27d5a46e855a233d6e8508",
      "css": "lock-open",
      "code": 61758,
      "src": "fontawesome"
    }
  ]
}